Projet STA302
…
Groupement pour avoir une ligne par individu.

ams2 <- ams %>% group_by(id) %>% arrange(desc(delai_consult_vis0)) %>% filter(row_number()==1) %>% arrange(id)

ams2

# A tibble: 784 × 14
# Groups:   id [784]
      id delai_consult_vis0 DUREE_SYMPT_VIS0 AGE_VISITE0 UMSARS1and2_TOT UMSARS4
   <int>              <dbl>            <dbl>       <dbl>           <dbl>   <dbl>
 1     1              1.01                 2        53.7              34       2
 2     2              6.75                 2        62.9              NA       3
 3     3              0.997                1        66.9              64       3
 4     4              0                    3        74.2              46       3
 5     5              6.38                 5        60.9              72       4
 6     6              0                    2        74.3              22       1
 7     7              0.663                8        60.0              50       3
 8     8              0                    4        49.2              42       2
 9     9              0                    4        42.5              60       4
10    10              0                    5        58.0              35      NA
# ℹ 774 more rows
# ℹ 8 more variables: SCHRAG_TOT <dbl>, delaiDecesCensor <dbl>, anyDC <fct>,
#   DIAG0 <fct>, SPT1CERE <fct>, SPT1DYS <fct>, SEXE <fct>, CPAP <fct>
…
CPAP = 1 :

ams_cpap1 <- ams %>% filter(CPAP == 1)

CPAP = 0 :

ams_cpap0 <- ams %>% filter(CPAP == 0)

Nombre de visites par individus

compte_lignes <- ams %>%count(id)
print(compte_lignes)

# A tibble: 784 × 2
      id     n
   <int> <int>
 1     1     2
 2     2    12
 3     3     3
 4     4     1
 5     5    10
 6     6     1
 7     7     2
 8     8     1
 9     9     1
10    10     1
# ℹ 774 more rows
…
Warning in AIC.default(m2pente, m2pente_int, m2complet, m2cut): models are not
all fitted to the same number of observations

            df      AIC
m2pente      4 18421.53
m2pente_int  6 17576.52
m2complet   16 17214.02
m2cut       13 17210.10

LME chez ceux qui changent de groupe (cpap 0 à 1)

ams_cpap_change

# A tibble: 298 × 14
      id delai_consult_vis0 DUREE_SYMPT_VIS0 AGE_VISITE0 UMSARS1and2_TOT UMSARS4
   <int>              <dbl>            <dbl>       <dbl>           <dbl>   <dbl>
 1     2              0                    2        62.9              18       1
 2     2              0.287                2        62.9              NA      NA
 3     2              1.57                 2        62.9              43       2
 4     2              2.75                 2        62.9              53       3
 5     2              3.42                 2        62.9              44       2
 6     2              3.58                 2        62.9              52       3
 7     2              3.65                 2        62.9              55       3
 8     2              4.27                 2        62.9              54       3
 9     2              4.44                 2        62.9              56       3
10     2              4.67                 2        62.9              55       3
# ℹ 288 more rows
# ℹ 8 more variables: SCHRAG_TOT <dbl>, delaiDecesCensor <dbl>, anyDC <fct>,
#   DIAG0 <fct>, SPT1CERE <fct>, SPT1DYS <fct>, SEXE <fct>, CPAP <fct>
…
